<svg width="106" height="105" viewBox="0 0 106 105" fill="none" xmlns="http://www.w3.org/2000/svg">
<g clip-path="url(#clip0)">
<path d="M11.132 14.7288C8.61853 14.7288 6.5741 12.7036 6.5741 10.2146C6.5741 7.72486 8.61853 5.69971 11.132 5.69971C13.6447 5.69971 15.6892 7.72486 15.6892 10.2146C15.6892 12.7036 13.6447 14.7288 11.132 14.7288ZM11.132 8.77669C10.3314 8.77669 9.68038 9.42156 9.68038 10.2146C9.68038 11.0069 10.3314 11.6518 11.132 11.6518C11.9318 11.6518 12.5837 11.0069 12.5837 10.2146C12.5837 9.42156 11.9318 8.77669 11.132 8.77669Z" fill="black"/>
<path d="M22.7354 14.7288C20.2219 14.7288 18.1775 12.7036 18.1775 10.2146C18.1775 7.72486 20.2227 5.69971 22.7354 5.69971C25.2481 5.69971 27.2925 7.72486 27.2925 10.2146C27.2925 12.7036 25.2481 14.7288 22.7354 14.7288ZM22.7354 8.77669C21.9348 8.77669 21.2838 9.42156 21.2838 10.2146C21.2838 11.0069 21.9348 11.6518 22.7354 11.6518C23.5352 11.6518 24.1871 11.0069 24.1871 10.2146C24.1871 9.42156 23.5352 8.77669 22.7354 8.77669Z" fill="black"/>
<path d="M34.3389 14.7288C31.8254 14.7288 29.781 12.7036 29.781 10.2146C29.781 7.72486 31.8254 5.69971 34.3389 5.69971C36.8516 5.69971 38.8961 7.72486 38.8961 10.2146C38.8961 12.7036 36.8516 14.7288 34.3389 14.7288ZM34.3389 8.77669C33.5383 8.77669 32.8873 9.42156 32.8873 10.2146C32.8873 11.0069 33.5383 11.6518 34.3389 11.6518C35.1388 11.6518 35.7906 11.0069 35.7906 10.2146C35.7906 9.42156 35.1396 8.77669 34.3389 8.77669Z" fill="black"/>
<path d="M68.9318 27.0576H36.4222C35.5641 27.0576 34.8687 27.7465 34.8687 28.5956C34.8687 29.4456 35.5641 30.1337 36.4222 30.1337H68.9318C69.7891 30.1337 70.4846 29.4456 70.4846 28.5956C70.4846 27.7465 69.7891 27.0576 68.9318 27.0576Z" fill="black"/>
<path d="M39.0619 51.7735C39.0619 52.6235 39.7574 53.3116 40.6154 53.3116H64.7387C65.5967 53.3116 66.2914 52.6235 66.2914 51.7735C66.2914 50.9243 65.5967 50.2354 64.7387 50.2354H40.6154C39.7574 50.2354 39.0619 50.9243 39.0619 51.7735Z" fill="black"/>
<path d="M12.9847 35.5699C12.9847 36.419 13.6802 37.108 14.5375 37.108H42.3808C43.2381 37.108 43.9335 36.419 43.9335 35.5699C43.9335 34.7199 43.2381 34.031 42.3808 34.031H14.5375C13.6794 34.031 12.9847 34.7199 12.9847 35.5699Z" fill="black"/>
<path d="M61.4617 34.031H49.9076C49.0495 34.031 48.354 34.7199 48.354 35.5699C48.354 36.419 49.0495 37.108 49.9076 37.108H61.4617C62.3198 37.108 63.0153 36.419 63.0153 35.5699C63.0153 34.7199 62.3198 34.031 61.4617 34.031Z" fill="black"/>
<path d="M67.5093 35.5699C67.5093 36.419 68.2048 37.108 69.062 37.108H90.8165C91.6738 37.108 92.3692 36.419 92.3692 35.5699C92.3692 34.7199 91.6738 34.031 90.8165 34.031H69.062C68.2048 34.031 67.5093 34.7199 67.5093 35.5699Z" fill="black"/>
<path d="M98.9579 -0.205078H6.62744C2.85882 -0.205078 -0.207031 2.83185 -0.207031 6.56572V34.3819C-0.207031 35.2311 0.488466 35.92 1.34571 35.92C2.20376 35.92 2.89925 35.2311 2.89925 34.3819V20.7209H102.687V98.0243C102.687 100.062 101.014 101.718 98.9587 101.718H6.62744C4.57168 101.718 2.89925 100.062 2.89925 98.0243V43.8171C2.89925 42.9672 2.20376 42.2782 1.34571 42.2782C0.488466 42.2782 -0.207031 42.9672 -0.207031 43.8171V98.0243C-0.207031 101.757 2.85882 104.795 6.62744 104.795H98.9579C102.727 104.795 105.793 101.757 105.793 98.0243V6.56572C105.793 2.83185 102.727 -0.205078 98.9579 -0.205078ZM102.687 17.644H2.89925V6.56572C2.89925 4.52855 4.57168 2.8719 6.62744 2.8719H98.9579C101.014 2.8719 102.687 4.52855 102.687 6.56492V17.644Z" fill="black"/>
<path d="M8.96545 75.851V91.8968C8.96545 93.8066 10.5336 95.3607 12.4615 95.3607H29.2392C31.1672 95.3607 32.7361 93.8066 32.7361 91.8968V75.851C32.7361 73.9412 31.1672 72.3879 29.2392 72.3879H22.1338V68.2856H51.1239V72.3879H44.2878C42.3598 72.3879 40.7909 73.9412 40.7909 75.851V91.8968C40.7909 93.8066 42.3598 95.3607 44.2878 95.3607H61.0655C62.9934 95.3607 64.5623 93.8066 64.5623 91.8968V75.851C64.5623 73.9412 62.9934 72.3879 61.0655 72.3879H54.2294V68.2856H83.2195V72.3879H76.1141C74.1861 72.3879 72.6172 73.9412 72.6172 75.851V91.8968C72.6172 93.8066 74.1861 95.3607 76.1141 95.3607H92.8917C94.8197 95.3607 96.3886 93.8066 96.3886 91.8968V75.851C96.3886 73.9412 94.8197 72.3879 92.8917 72.3879H86.3249V67.728C86.3249 66.3389 85.1846 65.2086 83.7815 65.2086H54.2302V60.0087H76.2871C78.2151 60.0087 79.7832 58.4554 79.7832 56.5448V46.7251C79.7832 44.8153 78.2151 43.2612 76.2871 43.2612H64.4928C63.6356 43.2612 62.9401 43.9501 62.9401 44.8001C62.9401 45.6492 63.6356 46.3381 64.4928 46.3381H76.2871C76.5023 46.3381 76.6777 46.512 76.6777 46.7251V56.5448C76.6777 56.7587 76.5023 56.9317 76.2871 56.9317H29.0669C28.8518 56.9317 28.6763 56.7587 28.6763 56.5448V46.7251C28.6763 46.512 28.8518 46.3381 29.0669 46.3381H55.0712C55.9293 46.3381 56.624 45.6492 56.624 44.8001C56.624 43.9501 55.9293 43.2612 55.0712 43.2612H29.0669C27.139 43.2612 25.57 44.8153 25.57 46.7251V56.5448C25.57 58.4554 27.139 60.0087 29.0669 60.0087H51.1239V65.2086H21.5717C20.1694 65.2086 19.0283 66.3389 19.0283 67.728V72.3879H12.4615C10.5336 72.3879 8.96545 73.9412 8.96545 75.851ZM92.8917 75.4641C93.1076 75.4641 93.2823 75.6379 93.2823 75.851V91.8968C93.2823 92.1099 93.1076 92.2837 92.8917 92.2837H76.1141C75.8989 92.2837 75.7235 92.1099 75.7235 91.8968V75.851C75.7235 75.6379 75.8989 75.4641 76.1141 75.4641H92.8917ZM61.0655 75.4641C61.2814 75.4641 61.4561 75.6379 61.4561 75.851V91.8968C61.4561 92.1099 61.2814 92.2837 61.0655 92.2837H44.2878C44.0727 92.2837 43.8972 92.1099 43.8972 91.8968V75.851C43.8972 75.6379 44.0727 75.4641 44.2878 75.4641H61.0655ZM29.2392 75.4641C29.4551 75.4641 29.6306 75.6379 29.6306 75.851V91.8968C29.6306 92.1099 29.4551 92.2837 29.2392 92.2837H12.4615C12.2464 92.2837 12.0709 92.1099 12.0709 91.8968V75.851C12.0709 75.6379 12.2464 75.4641 12.4615 75.4641H29.2392Z" fill="black"/>
<path d="M57.8532 82.6434H47.5C46.6428 82.6434 45.9473 81.9545 45.9473 81.1054C45.9473 80.2554 46.6428 79.5665 47.5 79.5665H57.8532C58.7112 79.5665 59.4067 80.2554 59.4067 81.1054C59.4067 81.9545 58.7112 82.6434 57.8532 82.6434Z" fill="black"/>
<path d="M54.1266 88.1814H47.5C46.6428 88.1814 45.9473 87.4924 45.9473 86.6433C45.9473 85.7933 46.6428 85.1044 47.5 85.1044H54.1266C54.9839 85.1044 55.6794 85.7933 55.6794 86.6433C55.6794 87.4924 54.9839 88.1814 54.1266 88.1814Z" fill="black"/>
<path d="M26.0269 82.6434H15.6737C14.8165 82.6434 14.121 81.9545 14.121 81.1054C14.121 80.2554 14.8165 79.5665 15.6737 79.5665H26.0269C26.885 79.5665 27.5805 80.2554 27.5805 81.1054C27.5805 81.9545 26.885 82.6434 26.0269 82.6434Z" fill="black"/>
<path d="M22.3003 88.1814H15.6737C14.8165 88.1814 14.121 87.4924 14.121 86.6433C14.121 85.7933 14.8165 85.1044 15.6737 85.1044H22.3003C23.1576 85.1044 23.8531 85.7933 23.8531 86.6433C23.8531 87.4924 23.1576 88.1814 22.3003 88.1814Z" fill="black"/>
<path d="M89.6795 82.6434H79.3263C78.4691 82.6434 77.7736 81.9545 77.7736 81.1054C77.7736 80.2554 78.4691 79.5665 79.3263 79.5665H89.6795C90.5376 79.5665 91.233 80.2554 91.233 81.1054C91.233 81.9545 90.5376 82.6434 89.6795 82.6434Z" fill="black"/>
<path d="M85.9529 88.1814H79.3263C78.4691 88.1814 77.7736 87.4924 77.7736 86.6433C77.7736 85.7933 78.4691 85.1044 79.3263 85.1044H85.9529C86.8102 85.1044 87.5057 85.7933 87.5057 86.6433C87.5057 87.4924 86.8102 88.1814 85.9529 88.1814Z" fill="black"/>
</g>
<defs>
<clipPath id="clip0">
<rect width="106" height="105" fill="white"/>
</clipPath>
</defs>
</svg>
