<svg width="129" height="130" viewBox="0 0 129 130" fill="none" xmlns="http://www.w3.org/2000/svg">
<g clip-path="url(#clip0)">
<path d="M117.85 21.3281H11.1489C5.00166 21.3281 0 26.3686 0 32.5645V97.3592C0 103.555 5.00166 108.595 11.1489 108.595H117.85C123.998 108.595 129 103.555 129 97.3592V32.5645C129 26.3686 123.998 21.3281 117.85 21.3281V21.3281ZM125.169 97.3592C125.169 101.426 121.885 104.734 117.85 104.734H11.1489C7.11472 104.734 3.83146 101.426 3.83146 97.3592V32.5645C3.83146 28.498 7.11472 25.1893 11.1489 25.1893H117.85C121.885 25.1893 125.169 28.498 125.169 32.5645V97.3592Z" fill="black"/>
<path d="M57.3479 36.7737H12.9008C11.8428 36.7737 10.9846 37.6376 10.9846 38.7048V43.3376C10.9846 44.4038 11.8428 45.2677 12.9008 45.2677C13.9588 45.2677 14.8171 44.4038 14.8171 43.3376V40.6349H55.4327V87.7444H14.8171V51.0609C14.8171 49.9947 13.9588 49.1299 12.9008 49.1299C11.8428 49.1299 10.9846 49.9947 10.9846 51.0609V89.6745C10.9846 90.7407 11.8428 91.6056 12.9008 91.6056H57.3479C58.4059 91.6056 59.2641 90.7407 59.2641 89.6745V38.7048C59.2641 37.6376 58.4059 36.7737 57.3479 36.7737Z" fill="black"/>
<path d="M116.612 41.2509H68.5883C67.5303 41.2509 66.6721 42.1157 66.6721 43.1819C66.6721 44.2481 67.5303 45.112 68.5883 45.112H116.612C117.67 45.112 118.527 44.2481 118.527 43.1819C118.527 42.1157 117.67 41.2509 116.612 41.2509Z" fill="black"/>
<path d="M116.612 55.2563H105.883C104.825 55.2563 103.968 56.1202 103.968 57.1864C103.968 58.2526 104.825 59.1175 105.883 59.1175H116.612C117.67 59.1175 118.527 58.2526 118.527 57.1864C118.527 56.1202 117.67 55.2563 116.612 55.2563Z" fill="black"/>
<path d="M68.5883 59.1175H98.2194C99.2774 59.1175 100.136 58.2526 100.136 57.1864C100.136 56.1202 99.2774 55.2563 98.2194 55.2563H68.5883C67.5303 55.2563 66.6721 56.1202 66.6721 57.1864C66.6721 58.2526 67.5303 59.1175 68.5883 59.1175Z" fill="black"/>
<path d="M116.612 69.2618H68.5883C67.5303 69.2618 66.6721 70.1257 66.6721 71.1919C66.6721 72.2581 67.5303 73.123 68.5883 73.123H116.612C117.67 73.123 118.527 72.2581 118.527 71.1919C118.527 70.1257 117.67 69.2618 116.612 69.2618Z" fill="black"/>
<path d="M94.6438 83.2674H68.5883C67.5303 83.2674 66.6721 84.1313 66.6721 85.1975C66.6721 86.2637 67.5303 87.1286 68.5883 87.1286H94.6438C95.7018 87.1286 96.5591 86.2637 96.5591 85.1975C96.5591 84.1313 95.7018 83.2674 94.6438 83.2674Z" fill="black"/>
<path d="M21.7133 83.4965C21.7133 84.5627 22.5715 85.4266 23.6295 85.4266C24.6875 85.4266 25.5457 84.5627 25.5457 83.4965C25.5457 78.1734 29.8427 73.8431 35.1248 73.8431C40.407 73.8431 44.704 78.1734 44.704 83.4965C44.704 84.5627 45.5612 85.4266 46.6192 85.4266C47.6772 85.4266 48.5354 84.5627 48.5354 83.4965C48.5354 78.585 45.9224 74.2785 42.024 71.912C45.9224 69.5455 48.5354 65.239 48.5354 60.3275C48.5354 52.876 42.5191 46.813 35.1248 46.813C27.7296 46.813 21.7133 52.876 21.7133 60.3275C21.7133 65.239 24.3273 69.5455 28.2257 71.912C24.3273 74.2785 21.7133 78.585 21.7133 83.4965ZM25.5457 60.3275C25.5457 55.0044 29.8427 50.6741 35.1248 50.6741C40.407 50.6741 44.704 55.0044 44.704 60.3275C44.704 65.6507 40.407 69.9809 35.1248 69.9809C29.8427 69.9809 25.5457 65.6507 25.5457 60.3275Z" fill="black"/>
</g>
<defs>
<clipPath id="clip0">
<rect width="129" height="130" fill="white"/>
</clipPath>
</defs>
</svg>
